…
The original data set does not contain the column `hgnc_id2`, which is
added as a convenience by `{hgnc}`; this is because although the HGNC
identifiers should formally contain the prefix `"HGNC:"`, it is often
found elsewhere that they are stripped of this prefix, so the column
`hgnc_id2` is also provided whose values only contain the integer part.

``` r
hgnc_dataset %>%
  dplyr::select(c('hgnc_id', 'hgnc_id2'))
#> # A tibble: 43,700 × 2
#>    hgnc_id    hgnc_id2
#>    <chr>      <chr>   
#>  1 HGNC:5     5       
#>  2 HGNC:37133 37133   
#>  3 HGNC:24086 24086   
#>  4 HGNC:7     7       
#>  5 HGNC:27057 27057   
#>  6 HGNC:23336 23336   
#>  7 HGNC:41022 41022   
#>  8 HGNC:41523 41523   
#>  9 HGNC:8     8       
#> 10 HGNC:30005 30005   
#> # ℹ 43,690 more rows
```
…
### Downloading other archives

Besides the latest archive, the [HUGO Gene Nomenclature Committee
(HGNC)](https://www.genenames.org/) website also provides monthly and
quarterly updates. Use `list_archives()` to list the currently available
for download archives. The column `url` contains the direct download
link that you can pass to `import_hgnc_dataset()` to import the data
into R.

``` r
list_archives()
#> # A tibble: 97 × 6
#>    series  dataset           file                         date       size  url  
#>    <chr>   <chr>             <chr>                        <date>     <chr> <chr>
#>  1 monthly hgnc_complete_set hgnc_complete_set_2021-03-0… 2023-05-01 14M   http…
#>  2 monthly hgnc_complete_set hgnc_complete_set_2021-04-0… 2023-05-01 15M   http…
#>  3 monthly hgnc_complete_set hgnc_complete_set_2021-05-0… 2023-05-01 15M   http…
#>  4 monthly hgnc_complete_set hgnc_complete_set_2021-06-0… 2023-05-01 15M   http…
#>  5 monthly hgnc_complete_set hgnc_complete_set_2021-07-0… 2023-05-01 15M   http…
#>  6 monthly hgnc_complete_set hgnc_complete_set_2021-08-0… 2023-05-01 15M   http…
#>  7 monthly hgnc_complete_set hgnc_complete_set_2021-09-0… 2023-05-01 15M   http…
#>  8 monthly hgnc_complete_set hgnc_complete_set_2021-10-0… 2023-05-01 15M   http…
#>  9 monthly hgnc_complete_set hgnc_complete_set_2021-11-0… 2023-05-01 15M   http…
#> 10 monthly hgnc_complete_set hgnc_complete_set_2021-12-0… 2023-05-01 15M   http…
#> # ℹ 87 more rows
```
…
In addition, we also provide the function `filter_by_keyword()` that
allows filtering the data set based on a keyword or regular expression.
By default this function will look into all columns that contain gene
symbols or names (`symbol`, `name`, `alias_symbol`, `alias_name`,
`prev_symbol` and `prev_name`). It works automatically with list-columns
too.

Look for entries in the data set that contain the keyword `"TP53"`:

``` r
hgnc_dataset %>%
  filter_by_keyword('TP53') %>%
  dplyr::select(1:4)
#> # A tibble: 66 × 4
#>    hgnc_id    hgnc_id2 symbol      name                                         
#>    <chr>      <chr>    <chr>       <chr>                                        
#>  1 HGNC:49685 49685    ABHD15-AS1  ABHD15 antisense RNA 1                       
#>  2 HGNC:20679 20679    ANO9        anoctamin 9                                  
#>  3 HGNC:40093 40093    BCAR3-AS1   BCAR3 antisense RNA 1                        
#>  4 HGNC:13276 13276    EI24        EI24 autophagy associated transmembrane prot…
#>  5 HGNC:3345  3345     ENC1        ectodermal-neural cortex 1                   
#>  6 HGNC:27919 27919    ERVMER61-1  endogenous retrovirus group MER61 member 1   
#>  7 HGNC:56226 56226    FAM169A-AS1 FAM169A antisense RNA 1                      
#>  8 HGNC:4136  4136     GAMT        guanidinoacetate N-methyltransferase         
#>  9 HGNC:54868 54868    KLRK1-AS1   KLRK1 antisense RNA 1                        
#> 10 HGNC:6568  6568     LGALS7      galectin 7                                   
#> # ℹ 56 more rows
```

Restrict the search to the `symbol` column:

``` r
hgnc_dataset %>%
  filter_by_keyword('TP53', cols = 'symbol') %>%
  dplyr::select(1:4)
#> # A tibble: 23 × 4
#>    hgnc_id    hgnc_id2 symbol    name                                           
#>    <chr>      <chr>    <chr>     <chr>                                          
#>  1 HGNC:11998 11998    TP53      tumor protein p53                              
#>  2 HGNC:29984 29984    TP53AIP1  tumor protein p53 regulated apoptosis inducing…
#>  3 HGNC:11999 11999    TP53BP1   tumor protein p53 binding protein 1            
#>  4 HGNC:12000 12000    TP53BP2   tumor protein p53 binding protein 2            
#>  5 HGNC:16328 16328    TP53BP2P1 tumor protein p53 binding protein 2 pseudogene…
#>  6 HGNC:43652 43652    TP53COR1  tumor protein p53 pathway corepressor 1        
#>  7 HGNC:19373 19373    TP53I3    tumor protein p53 inducible protein 3          
#>  8 HGNC:16842 16842    TP53I11   tumor protein p53 inducible protein 11         
#>  9 HGNC:25102 25102    TP53I13   tumor protein p53 inducible protein 13         
#> 10 HGNC:18022 18022    TP53INP1  tumor protein p53 inducible nuclear protein 1  
#> # ℹ 13 more rows
```
…
